<?xml version="1.0" encoding="utf-8"?>
<!-- Generator: Adobe Illustrator 22.1.0, SVG Export Plug-In . SVG Version: 6.00 Build 0)  -->
<svg version="1.1" id="Layer_1" xmlns="http://www.w3.org/2000/svg" xmlns:xlink="http://www.w3.org/1999/xlink" x="0px" y="0px"
	 viewBox="0 0 64 48" style="enable-background:new 0 0 64 48;" xml:space="preserve">
<style type="text/css">
	.st0{fill:none;stroke:#00A79E;stroke-width:2;stroke-linecap:round;stroke-miterlimit:10;}
	.st1{fill:#E7FAFA;stroke:#645FAA;stroke-width:2;stroke-linecap:round;stroke-miterlimit:10;}
	.st2{fill:none;stroke:#D5F7F6;stroke-width:2;stroke-linecap:round;stroke-miterlimit:10;}
</style>
<line class="st0" x1="30.7" y1="4" x2="62.5" y2="4"/>
<line class="st0" x1="30.7" y1="17.6" x2="62.5" y2="17.6"/>
<line class="st0" x1="37.9" y1="31.2" x2="62.5" y2="31.2"/>
<line class="st0" x1="37.9" y1="44.7" x2="62.5" y2="44.7"/>
<circle class="st1" cx="14.3" cy="11.6" r="9"/>
<path class="st0" d="M1.5,44.7V31.9c0-3.8,3.1-7,7-7h13.7c3.8,0,7,3.1,7,7v12.9"/>
<line class="st2" x1="10.8" y1="37.1" x2="16.5" y2="31.4"/>
<line class="st2" x1="15.4" y1="39.7" x2="19.7" y2="35.3"/>
</svg>
